<?xml version="1.0" encoding="utf-8"?>
<!-- Generator: Adobe Illustrator 17.1.0, SVG Export Plug-In . SVG Version: 6.00 Build 0)  -->
<!DOCTYPE svg PUBLIC "-//W3C//DTD SVG 1.1//EN" "http://www.w3.org/Graphics/SVG/1.1/DTD/svg11.dtd">
<svg version="1.1" id="Layer_1" xmlns="http://www.w3.org/2000/svg" xmlns:xlink="http://www.w3.org/1999/xlink" x="0px" y="0px"
	 viewBox="0 0 135 100" enable-background="new 0 0 135 100" xml:space="preserve">
<g>
	<path fill="#FFFFFF" d="M100.322,8.072C97.069,4.754,91.936,3,85.479,3C73.372,3,59.337,9.154,50.553,18.312
		c-5.99,6.245-11.2,15.94-13.597,25.301c-2.742,10.706-1.595,19.314,3.23,24.237c3.158,3.223,8.058,4.926,14.172,4.926
		c0.001,0,0.001,0,0.003,0c11.941,0,26.904-6.372,35.578-15.15c8.918-9.026,15.162-23.571,15.185-35.369
		C105.136,16.195,103.475,11.291,100.322,8.072z M52.853,52.48c0,0-4.273,1.992-6.045,1.453c-1.449-0.439-2.286-4.873-1.044-10.779
		c1.281-6.098,3.473-14.366,10.668-22.427c0.004-0.004,0.008-0.01,0.014-0.014c3.878-4.044,8.938-7.46,14.631-9.878
		c5.321-2.259,10.929-3.504,15.796-3.504c3.614,0,6.632,0.677,8.751,1.93c0.837,0.579,0.888,3.728-1.083,7.368
		s-7.917,11.705-15.009,17.978C72.44,40.884,56.683,51.09,52.853,52.48z M86.898,51.671c-4.818,4.877-12.081,8.977-19.386,11.283
		c-0.224,0.045-0.447,0.088-0.665,0.13c-2.817,0.507-6.196,0.703-7.586,0.366c-1.862-0.449-1.424-2.098,0.043-3.072
		c1.467-0.975,13.173-10.283,19.466-16.705c5.786-5.903,17.647-18.472,20.985-25.339c0.096-0.198,0.321-0.196,0.341-0.002
		c0.093,0.882,0.127,1.737,0.125,2.517C100.203,30.916,94.6,43.878,86.898,51.671z"/>
	<g>
		<path fill="#FFFFFF" d="M13.804,76.641v4.828H9.457c-0.564,0-0.932,0.475-0.762,0.976l2.23,6.648
			c1.129,3.43-2.089,6.042-5.589,6.042H0.452v-4.828h4.375c0.593,0,0.932-0.475,0.762-0.976l-2.202-6.648
			c-1.129-3.456,2.061-6.042,5.589-6.042H13.804z"/>
		<path fill="#FFFFFF" d="M32.831,90.933c0.393,0,0.712-0.299,0.712-0.666v-8.658h4.496v8.658c0,2.687-2.333,4.868-5.208,4.868
			h-3.538c-1.105,0-2.383-0.643-2.973-1.516c-0.589,0.873-1.867,1.516-2.973,1.516h-3.537c-2.875,0-5.208-2.182-5.208-4.868v-8.658
			h4.471v8.658c0,0.367,0.344,0.666,0.737,0.666h3.537c0.394,0,0.713-0.299,0.713-0.666v-8.658h4.496v8.658
			c0,0.367,0.319,0.666,0.737,0.666H32.831z"/>
		<path fill="#FFFFFF" d="M39.023,79.06h4.569v2.549h-4.569V79.06z M39.023,95.135c0-3.261,0-9.691,0-12.952h4.496
			c0,3.261,0,9.691,0,12.952H39.023z"/>
		<path fill="#FFFFFF" d="M49.71,85.812c-0.393,0-0.712,0.298-0.712,0.666v8.657h-4.496v-8.657c0-2.688,2.334-4.869,5.208-4.869
			h4.029c2.874,0,5.208,2.182,5.208,4.869v8.657h-4.496v-8.657c0-0.368-0.319-0.666-0.712-0.666H49.71z"/>
		<path fill="#FFFFFF" d="M69.192,81.608v4.203h-4.054c-0.393,0-0.712,0.298-0.712,0.666v3.789c0,0.367,0.32,0.666,0.712,0.666
			h4.054c0.394,0,0.713-0.299,0.713-0.666c0-3.743,0-7.486,0-11.229H74.4c0,3.743,0,7.463,0,11.229c0,2.687-2.334,4.868-5.208,4.868
			h-4.054c-2.874,0-5.208-2.182-5.208-4.868v-3.789c0-2.688,2.334-4.869,5.208-4.869H69.192z"/>
		<path fill="#FFFFFF" d="M84.646,81.608c2.874,0,5.208,2.182,5.208,4.869v3.789c0,2.687-2.334,4.868-5.208,4.868h-4.029
			c-2.874,0-5.232-2.182-5.232-4.868v-3.789c0-2.688,2.358-4.869,5.232-4.869H84.646z M80.616,85.812
			c-0.393,0-0.736,0.298-0.736,0.666v3.789c0,0.367,0.344,0.666,0.736,0.666h4.029c0.394,0,0.713-0.299,0.713-0.666v-3.789
			c0-0.368-0.319-0.666-0.713-0.666H80.616z"/>
		<path fill="#FFFFFF" d="M96.046,85.812c-0.393,0-0.712,0.298-0.712,0.666v8.657h-4.496v-8.657c0-2.688,2.334-4.869,5.208-4.869
			h4.029c2.874,0,5.208,2.182,5.208,4.869v8.657h-4.496v-8.657c0-0.368-0.319-0.666-0.712-0.666H96.046z"/>
		<path fill="#FFFFFF" d="M118.011,79.037c3.39,0,5.429,2.182,4.348,5.259l-3.709,10.839h-4.692l3.783-11.046
			c0.147-0.437-0.147-0.85-0.663-0.85h-5.036v-4.202H118.011z"/>
		<path fill="#FFFFFF" d="M134.299,81.608v4.203h-2.973c-0.516,0-0.836,0.413-0.688,0.85l1.057,3.215
			c0.982,2.985-1.793,5.259-4.864,5.259h-3.439v-4.202h3.096c0.491,0,0.762-0.414,0.663-0.85l-1.056-3.216
			c-0.983-2.985,1.793-5.259,4.863-5.259H134.299z"/>
	</g>
</g>
</svg>
