<?xml version="1.0" encoding="utf-8"?>
<!-- Generator: Adobe Illustrator 16.0.0, SVG Export Plug-In . SVG Version: 6.00 Build 0)  -->
<!DOCTYPE svg PUBLIC "-//W3C//DTD SVG 1.1//EN" "http://www.w3.org/Graphics/SVG/1.1/DTD/svg11.dtd">
<svg version="1.1" id="Layer_1" xmlns="http://www.w3.org/2000/svg" xmlns:xlink="http://www.w3.org/1999/xlink" x="0px" y="0px"
	 width="152px" height="152px" viewBox="0 0 152 152" enable-background="new 0 0 152 152" xml:space="preserve">
<g>
	<path fill="#FFFFFF" d="M132.047,20.328c-6.071-6.19-15.665-9.473-27.717-9.473c-22.595,0-48.816,11.498-65.219,28.593
		C27.924,51.101,18.205,69.226,13.728,86.694c-5.125,19.985-2.981,36.069,6.027,45.259c5.899,6.018,15.044,9.191,26.459,9.191
		c0.009,0,0.009,0,0.009,0c22.302,0,50.247-11.888,66.439-28.282C129.312,95.994,140.964,68.843,141,46.815
		C141.036,35.491,137.938,26.337,132.047,20.328z M43.406,103.252c0,0-7.978,3.72-11.288,2.717
		c-2.699-0.821-4.268-9.099-1.951-20.131c2.397-11.396,6.491-26.824,19.921-41.886c0.009,0,0.019,0,0.027-0.018
		c7.239-7.549,16.694-13.932,27.326-18.436c9.929-4.231,20.414-6.556,29.494-6.556c6.747,0,12.383,1.268,16.339,3.611
		c1.569,1.076,1.66,6.957-2.022,13.758c-3.685,6.802-14.789,21.864-28.029,33.571C79.986,81.589,50.563,100.662,43.406,103.252z
		 M106.974,101.738c-8.989,9.1-22.557,16.758-36.197,21.062c-0.41,0.091-0.83,0.183-1.24,0.256
		c-5.261,0.949-11.57,1.313-14.159,0.693c-3.482-0.838-2.662-3.94,0.073-5.762c2.744-1.808,24.6-19.185,36.352-31.182
		c10.796-11.015,32.951-34.502,39.188-47.303c0.181-0.382,0.601-0.364,0.638-0.018c0.181,1.66,0.237,3.246,0.218,4.705
		C131.829,62.99,121.361,87.188,106.974,101.738z"/>
</g>
</svg>
