<?xml version="1.0" encoding="utf-8"?>
<!-- Generator: Adobe Illustrator 17.1.0, SVG Export Plug-In . SVG Version: 6.00 Build 0)  -->
<!DOCTYPE svg PUBLIC "-//W3C//DTD SVG 1.1//EN" "http://www.w3.org/Graphics/SVG/1.1/DTD/svg11.dtd">
<svg version="1.1" id="Layer_1" xmlns="http://www.w3.org/2000/svg" xmlns:xlink="http://www.w3.org/1999/xlink" x="0px" y="0px"
	 viewBox="0 0 52 52" enable-background="new 0 0 52 52" xml:space="preserve">
<path fill="#222222" d="M26,0C11.641,0,0,11.641,0,26c0,14.359,11.641,26,26,26c14.36,0,26-11.641,26-26C52,11.641,40.36,0,26,0z
	 M37.953,19.87c0.012,0.265,0.018,0.531,0.018,0.798c0,8.15-6.203,17.547-17.547,17.547c-3.483,0-6.724-1.021-9.453-2.771
	c0.482,0.057,0.973,0.086,1.471,0.086c2.89,0,5.549-0.986,7.659-2.64c-2.699-0.05-4.976-1.833-5.761-4.283
	c0.377,0.072,0.763,0.111,1.16,0.111c0.562,0,0.518-0.075,1.036-0.216C13.714,27.935,11,25.442,11,22.454c0-0.026,0-0.052,0-0.078
	c0,0.462,2.372,0.739,3.382,0.771c-1.655-1.106-2.449-2.994-2.449-5.133c0-1.13,0.452-2.19,0.982-3.1
	c3.042,3.731,7.66,6.186,12.785,6.444c-0.105-0.451-0.123-0.922-0.123-1.405c0-3.406,2.78-6.167,6.186-6.167
	c1.774,0,3.386,0.749,4.511,1.947c1.405-0.277,2.729-0.79,3.921-1.497c-0.46,1.44-1.436,2.649-2.709,3.412
	c1.248-0.149,2.437-0.481,3.543-0.971C40.202,17.914,39.158,19,37.953,19.87z"/>
<g>
</g>
<g>
</g>
<g>
</g>
<g>
</g>
<g>
</g>
<g>
</g>
<g>
</g>
<g>
</g>
<g>
</g>
<g>
</g>
<g>
</g>
<g>
</g>
<g>
</g>
<g>
</g>
<g>
</g>
</svg>
